Calculate Mutation Frequency By Sliding Window. — calc_mutation_frequency_bin_region • GAMBLR.open
…
    Examples

myc_region = "8:128747680-128753674" 
myc_mut_freq = calc_mutation_frequency_bin_region(region = myc_region,
                                                  slide_by = 10,
                                                  window_size = 10000)
#> Using the bundled metadata in GAMBLR.data...
#> processing bins of size 10000 across 5994 bp region
#> Using GAMBLR.data::get_ssm_by_region...
#> Using the bundled metadata in GAMBLR.data...
#> Joining with `by = join_by(sample_id)`
#> Joining with `by = join_by(window_start)`
dplyr::arrange(myc_mut_freq,desc(mutation_count))
#> # A tibble: 612,000 × 3
#>    sample_id                 bin         mutation_count
#>    <chr>                     <chr>                <int>
#>  1 BLGSP-71-26-00399-01A-01E 8_128747680             41
#>  2 BLGSP-71-26-00399-01A-01E 8_128747690             41
#>  3 BLGSP-71-26-00399-01A-01E 8_128747700             41
#>  4 BLGSP-71-26-00399-01A-01E 8_128747710             41
#>  5 BLGSP-71-26-00399-01A-01E 8_128747720             41
#>  6 BLGSP-71-26-00399-01A-01E 8_128747730             41
#>  7 BLGSP-71-26-00399-01A-01E 8_128747740             41
#>  8 BLGSP-71-26-00399-01A-01E 8_128747750             41
#>  9 BLGSP-71-26-00399-01A-01E 8_128747760             41
#> 10 BLGSP-71-26-00399-01A-01E 8_128747770             41
#> # ℹ 611,990 more rows
…
