Get GAMBL Metadata. — get_gambl_metadata • GAMBLR.open
…
#return metadata for genome samples (here, the parameter is redundant because 'genome' is the default)
genome_meta = get_gambl_metadata(seq_type_filter = "genome")
#> Using the bundled metadata in GAMBLR.data...

#return metadata for capture samples.
capture_meta = get_gambl_metadata(seq_type_filter = "capture")
#> Using the bundled metadata in GAMBLR.data...

#If you want metadata for genome and capture samples you can provide a vector of seq types
all_meta = get_gambl_metadata(seq_type_filter = c("genome", "capture"))
#> Using the bundled metadata in GAMBLR.data...

dplyr::group_by(all_meta,cohort,seq_type) %>% 
    dplyr::count()
#> # A tibble: 21 × 3
#> # Groups:   cohort, seq_type [21]
#>    cohort             seq_type     n
#>    <chr>              <chr>    <int>
#>  1 BL_Adult           genome      91
#>  2 BL_Pediatric       genome     121
#>  3 BL_cell_lines      genome      22
#>  4 DLBCL_Gascoyne     genome      21
#>  5 DLBCL_GenomeCanada genome      59
#>  6 DLBCL_HTMCP        genome      43
#>  7 DLBCL_ICGC         genome      84
#>  8 DLBCL_LSARP_Trios  capture     12
#>  9 DLBCL_LSARP_Trios  genome     142
#> 10 DLBCL_Marra        genome      38
#> # ℹ 11 more rows
…
